%YAML 1.1
%TAG !u! tag:unity3d.com,2011:
--- !u!1 &100000
GameObject:
  m_ObjectHideFlags: 0
  m_PrefabParentObject: {fileID: 0}
  m_PrefabInternal: {fileID: 100100000}
  serializedVersion: 4
  m_Component:
  - 4: {fileID: 400000}
  - 114: {fileID: 11400000}
  m_Layer: 0
  m_Name: main
  m_TagString: Untagged
  m_Icon: {fileID: 0}
  m_NavMeshLayer: 0
  m_StaticEditorFlags: 0
  m_IsActive: 1
--- !u!4 &400000
Transform:
  m_ObjectHideFlags: 1
  m_PrefabParentObject: {fileID: 0}
  m_PrefabInternal: {fileID: 100100000}
  m_GameObject: {fileID: 100000}
  m_LocalRotation: {x: 0, y: 0, z: 0, w: 1}
  m_LocalPosition: {x: 0, y: 0, z: 0}
  m_LocalScale: {x: 1, y: 1, z: 1}
  m_LocalEulerAnglesHint: {x: 0, y: 0, z: 0}
  m_Children: []
  m_Father: {fileID: 0}
  m_RootOrder: 0
--- !u!114 &11400000
MonoBehaviour:
  m_ObjectHideFlags: 1
  m_PrefabParentObject: {fileID: 0}
  m_PrefabInternal: {fileID: 100100000}
  m_GameObject: {fileID: 100000}
  m_Enabled: 1
  m_EditorHideFlags: 0
  m_Script: {fileID: 11500000, guid: 4d0c51bb0b6e93049af5e88f93826e3b, type: 3}
  m_Name: 
  m_EditorClassIdentifier: 
  material: {fileID: 2100000, guid: 31a74efb6ec02f14fb44afd322fdfc5b, type: 2}
  mSprites:
  - name: Bau
    x: 915
    y: 1210
    width: 100
    height: 100
    borderLeft: 0
    borderRight: 0
    borderTop: 0
    borderBottom: 0
    paddingLeft: 0
    paddingRight: 0
    paddingTop: 0
    paddingBottom: 0
  - name: board_rating
    x: 0
    y: 1311
    width: 478
    height: 737
    borderLeft: 0
    borderRight: 0
    borderTop: 0
    borderBottom: 0
    paddingLeft: 2
    paddingRight: 0
    paddingTop: 6
    paddingBottom: 0
  - name: Ca
    x: 252
    y: 1063
    width: 100
    height: 100
    borderLeft: 0
    borderRight: 0
    borderTop: 0
    borderBottom: 0
    paddingLeft: 0
    paddingRight: 0
    paddingTop: 0
    paddingBottom: 0
  - name: cart
    x: 699
    y: 1046
    width: 51
    height: 53
    borderLeft: 0
    borderRight: 0
    borderTop: 0
    borderBottom: 0
    paddingLeft: 0
    paddingRight: 0
    paddingTop: 0
    paddingBottom: 0
  - name: coin
    x: 773
    y: 1824
    width: 224
    height: 224
    borderLeft: 0
    borderRight: 0
    borderTop: 0
    borderBottom: 0
    paddingLeft: 1
    paddingRight: 0
    paddingTop: 1
    paddingBottom: 0
  - name: coin1
    x: 769
    y: 1345
    width: 157
    height: 157
    borderLeft: 0
    borderRight: 0
    borderTop: 0
    borderBottom: 0
    paddingLeft: 0
    paddingRight: 0
    paddingTop: 0
    paddingBottom: 0
  - name: Cua
    x: 252
    y: 962
    width: 100
    height: 100
    borderLeft: 0
    borderRight: 0
    borderTop: 0
    borderBottom: 0
    paddingLeft: 0
    paddingRight: 0
    paddingTop: 0
    paddingBottom: 0
  - name: delete
    x: 699
    y: 1100
    width: 62
    height: 63
    borderLeft: 0
    borderRight: 0
    borderTop: 0
    borderBottom: 0
    paddingLeft: 5
    paddingRight: 0
    paddingTop: 6
    paddingBottom: 0
  - name: Dialog
    x: 703
    y: 1195
    width: 146
    height: 42
    borderLeft: 0
    borderRight: 0
    borderTop: 0
    borderBottom: 0
    paddingLeft: 0
    paddingRight: 0
    paddingTop: 4
    paddingBottom: 0
  - name: Disk
    x: 479
    y: 1755
    width: 293
    height: 293
    borderLeft: 0
    borderRight: 0
    borderTop: 0
    borderBottom: 0
    paddingLeft: 3
    paddingRight: 4
    paddingTop: 1
    paddingBottom: 6
  - name: Ga
    x: 353
    y: 962
    width: 100
    height: 100
    borderLeft: 0
    borderRight: 0
    borderTop: 0
    borderBottom: 0
    paddingLeft: 0
    paddingRight: 0
    paddingTop: 0
    paddingBottom: 0
  - name: menu
    x: 950
    y: 1760
    width: 62
    height: 63
    borderLeft: 0
    borderRight: 0
    borderTop: 0
    borderBottom: 0
    paddingLeft: 5
    paddingRight: 0
    paddingTop: 6
    paddingBottom: 0
  - name: mo
    x: 491
    y: 1165
    width: 211
    height: 72
    borderLeft: 0
    borderRight: 0
    borderTop: 0
    borderBottom: 0
    paddingLeft: 10
    paddingRight: 5
    paddingTop: 2
    paddingBottom: 0
  - name: Mo
    x: 927
    y: 1429
    width: 73
    height: 73
    borderLeft: 0
    borderRight: 0
    borderTop: 0
    borderBottom: 0
    paddingLeft: 0
    paddingRight: 0
    paddingTop: 0
    paddingBottom: 0
  - name: mo_moi
    x: 479
    y: 1314
    width: 219
    height: 74
    borderLeft: 0
    borderRight: 0
    borderTop: 0
    borderBottom: 0
    paddingLeft: 6
    paddingRight: 1
    paddingTop: 0
    paddingBottom: 0
  - name: MoCheat
    x: 454
    y: 989
    width: 73
    height: 73
    borderLeft: 0
    borderRight: 0
    borderTop: 0
    borderBottom: 0
    paddingLeft: 0
    paddingRight: 0
    paddingTop: 0
    paddingBottom: 0
  - name: monetary
    x: 0
    y: 1164
    width: 490
    height: 146
    borderLeft: 0
    borderRight: 0
    borderTop: 0
    borderBottom: 0
    paddingLeft: 5
    paddingRight: 5
    paddingTop: 1
    paddingBottom: 3
  - name: money
    x: 773
    y: 1770
    width: 176
    height: 53
    borderLeft: 0
    borderRight: 0
    borderTop: 0
    borderBottom: 0
    paddingLeft: 0
    paddingRight: 0
    paddingTop: 0
    paddingBottom: 0
  - name: Nai
    x: 454
    y: 1063
    width: 100
    height: 100
    borderLeft: 0
    borderRight: 0
    borderTop: 0
    borderBottom: 0
    paddingLeft: 0
    paddingRight: 0
    paddingTop: 0
    paddingBottom: 0
  - name: NapUp
    x: 0
    y: 912
    width: 251
    height: 251
    borderLeft: 0
    borderRight: 0
    borderTop: 0
    borderBottom: 0
    paddingLeft: 0
    paddingRight: 0
    paddingTop: 0
    paddingBottom: 0
  - name: NapUpCheat
    x: 769
    y: 1503
    width: 251
    height: 251
    borderLeft: 0
    borderRight: 0
    borderTop: 0
    borderBottom: 0
    paddingLeft: 0
    paddingRight: 0
    paddingTop: 0
    paddingBottom: 0
  - name: play
    x: 491
    y: 1238
    width: 211
    height: 72
    borderLeft: 0
    borderRight: 0
    borderTop: 0
    borderBottom: 0
    paddingLeft: 10
    paddingRight: 5
    paddingTop: 2
    paddingBottom: 0
  - name: play 1
    x: 699
    y: 1394
    width: 67
    height: 69
    borderLeft: 0
    borderRight: 0
    borderTop: 0
    borderBottom: 0
    paddingLeft: 2
    paddingRight: 1
    paddingTop: 1
    paddingBottom: 0
  - name: play_moi
    x: 555
    y: 1071
    width: 100
    height: 50
    borderLeft: 0
    borderRight: 0
    borderTop: 0
    borderBottom: 0
    paddingLeft: 0
    paddingRight: 0
    paddingTop: 0
    paddingBottom: 0
  - name: quit
    x: 699
    y: 1325
    width: 62
    height: 63
    borderLeft: 0
    borderRight: 0
    borderTop: 0
    borderBottom: 0
    paddingLeft: 5
    paddingRight: 0
    paddingTop: 6
    paddingBottom: 0
  - name: rate
    x: 850
    y: 1174
    width: 62
    height: 63
    borderLeft: 0
    borderRight: 0
    borderTop: 0
    borderBottom: 0
    paddingLeft: 5
    paddingRight: 0
    paddingTop: 6
    paddingBottom: 0
  - name: rating
    x: 555
    y: 1007
    width: 62
    height: 63
    borderLeft: 0
    borderRight: 0
    borderTop: 0
    borderBottom: 0
    paddingLeft: 5
    paddingRight: 0
    paddingTop: 6
    paddingBottom: 0
  - name: rating_title
    x: 555
    y: 1122
    width: 143
    height: 41
    borderLeft: 0
    borderRight: 0
    borderTop: 0
    borderBottom: 0
    paddingLeft: 6
    paddingRight: 2
    paddingTop: 9
    paddingBottom: 3
  - name: replay
    x: 618
    y: 1007
    width: 62
    height: 63
    borderLeft: 0
    borderRight: 0
    borderTop: 0
    borderBottom: 0
    paddingLeft: 5
    paddingRight: 0
    paddingTop: 6
    paddingBottom: 0
  - name: sound_off
    x: 555
    y: 943
    width: 62
    height: 63
    borderLeft: 0
    borderRight: 0
    borderTop: 0
    borderBottom: 0
    paddingLeft: 5
    paddingRight: 0
    paddingTop: 6
    paddingBottom: 0
  - name: sound_on
    x: 618
    y: 943
    width: 62
    height: 63
    borderLeft: 0
    borderRight: 0
    borderTop: 0
    borderBottom: 0
    paddingLeft: 5
    paddingRight: 0
    paddingTop: 6
    paddingBottom: 0
  - name: Tom
    x: 353
    y: 1063
    width: 100
    height: 100
    borderLeft: 0
    borderRight: 0
    borderTop: 0
    borderBottom: 0
    paddingLeft: 0
    paddingRight: 0
    paddingTop: 0
    paddingBottom: 0
  - name: Up
    x: 479
    y: 1464
    width: 289
    height: 290
    borderLeft: 0
    borderRight: 0
    borderTop: 0
    borderBottom: 0
    paddingLeft: 9
    paddingRight: 2
    paddingTop: 8
    paddingBottom: 2
  - name: UpCheat
    x: 927
    y: 1355
    width: 73
    height: 73
    borderLeft: 0
    borderRight: 0
    borderTop: 0
    borderBottom: 0
    paddingLeft: 0
    paddingRight: 0
    paddingTop: 0
    paddingBottom: 0
  - name: xoc
    x: 703
    y: 1238
    width: 211
    height: 72
    borderLeft: 0
    borderRight: 0
    borderTop: 0
    borderBottom: 0
    paddingLeft: 10
    paddingRight: 5
    paddingTop: 2
    paddingBottom: 0
  - name: Xoc
    x: 454
    y: 915
    width: 73
    height: 73
    borderLeft: 0
    borderRight: 0
    borderTop: 0
    borderBottom: 0
    paddingLeft: 0
    paddingRight: 0
    paddingTop: 0
    paddingBottom: 0
  - name: xoc_moi
    x: 479
    y: 1389
    width: 219
    height: 74
    borderLeft: 0
    borderRight: 0
    borderTop: 0
    borderBottom: 0
    paddingLeft: 6
    paddingRight: 1
    paddingTop: 0
    paddingBottom: 0
  mPixelSize: 1
  mReplacement: {fileID: 0}
  mCoordinates: 0
  sprites: []
--- !u!1001 &100100000
Prefab:
  m_ObjectHideFlags: 1
  serializedVersion: 2
  m_Modification:
    m_TransformParent: {fileID: 0}
    m_Modifications: []
    m_RemovedComponents: []
  m_ParentPrefab: {fileID: 0}
  m_RootGameObject: {fileID: 100000}
  m_IsPrefabParent: 1
